Text Mining
…
tidy_SCJH.2 <- tidy_SCJH %>%
  anti_join(stop_words)

In order to examine the impact of removing these filler words, we can use the count() function to examine the frequencies of different words. This when sorted, will produce a table of frequencies in descending order. An other option is to redo the wordclouds on the updated data frame containing the word counts of the tidied book text without stop words.

Use the function count() to compare the frequencies of words in the dataframes containing the tidied book text with and without stop words (use sort = TRUE within the count() function), or redo the wordclouds. Do you notice a difference in the (top 10) words which most commonly occur in the text?

Hint: As with Question 1, ensure to use the piping operator (%>%) to easily apply the function.

tidy_AAIWL.count2 <- tidy_AAIWL.2 %>%
    count(word, sort = TRUE)

tidy_AAIWL.count

## # A tibble: 2,919 x 2
##    word      n
##    <chr> <int>
##  1 the    1676
##  2 and     899
##  3 to      757
##  4 a       649
##  5 she     543
##  6 it      539
##  7 of      523
##  8 said    466
##  9 alice   391
## 10 i       391
## #  with 2,909 more rows

tidy_AAIWL.count2

## # A tibble: 2,448 x 2
##    word        n
##    <chr>   <int>
##  1 alice     391
##  2 queen      73
##  3 time       73
##  4 king       61
##  5 mock       59
##  6 turtle     58
##  7 gryphon    55
##  8 hatter     55
##  9 head       53
## 10 rabbit     49
## #  with 2,438 more rows

tidy_PODG.count2 <- tidy_PODG.2 %>%
    count(word, sort = TRUE) 

tidy_PODG.count

## # A tibble: 6,909 x 2
##    word      n
##    <chr> <int>
##  1 the    3764
##  2 and    2211
##  3 of     2175
##  4 to     2101
##  5 i      1690
##  6 a      1671
##  7 he     1539
##  8 you    1444
##  9 that   1360
## 10 it     1338
## #  with 6,899 more rows

tidy_PODG.count2

## # A tibble: 6,429 x 2
##    word       n
##    <chr>  <int>
##  1 dorian   410
##  2 dont    255
##  3 lord     248
##  4 life     229
##  5 henry    223
##  6 gray     189
##  7 harry    174
##  8 basil    153
##  9 love     111
## 10 time     110
## #  with 6,419 more rows

tidy_Drac.count2 <- tidy_Drac.2 %>%
    count(word, sort = TRUE) 

tidy_Drac.count

## # A tibble: 9,648 x 2
##    word      n
##    <chr> <int>
##  1 the    7910
##  2 and    5906
##  3 i      4801
##  4 to     4666
##  5 of     3629
##  6 a      2953
##  7 he     2567
##  8 in     2509
##  9 that   2467
## 10 it     2155
## #  with 9,638 more rows

tidy_Drac.count2

## # A tibble: 9,052 x 2
##    word        n
##    <chr>   <int>
##  1 time      390
##  2 van       323
##  3 night     310
##  4 helsing   301
##  5 dear      224
##  6 lucy      223
##  7 day       220
##  8 hand      210
##  9 mina      210
## 10 door      200
## #  with 9,042 more rows

tidy_SCJH.count2 <- tidy_SCJH.2 %>%
    count(word, sort = TRUE) 

tidy_SCJH.count

## # A tibble: 3,982 x 2
##    word      n
##    <chr> <int>
##  1 the    1615
##  2 and     972
##  3 of      941
##  4 to      644
##  5 i       640
##  6 a       628
##  7 was     469
##  8 in      424
##  9 he      378
## 10 that    370
## #  with 3,972 more rows

tidy_SCJH.count2

## # A tibble: 3,524 x 2
##    word         n
##    <chr>    <int>
##  1 utterson   128
##  2 hyde        98
##  3 jekyll      84
##  4 lawyer      67
##  5 poole       61
##  6 sir         59
##  7 door        52
##  8 life        48
##  9 dr          45
## 10 hand        45
## #  with 3,514 more rows
…
nrc_fear <- get_sentiments("nrc") %>%
  filter(sentiment == "fear")

Step 2: Filtering the Focus

From this you can use the inner_join() function passing the argument nrc_fear to isolate only the words on this list.

Using the inner_join() and count() functions to create a list of the fear words and their frequencies within your tided text.

tidy_AAIWL.2 %>% 
  inner_join(nrc_fear) %>%
  count(word, sort = TRUE)

## # A tibble: 132 x 2
##    word           n
##    <chr>      <int>
##  1 court         19
##  2 mad           16
##  3 change        14
##  4 afraid        12
##  5 serpent        9
##  6 watch          9
##  7 feeling        7
##  8 frightened     7
##  9 broken         6
## 10 dreadfully     6
## #  with 122 more rows

tidy_PODG.2 %>% 
  inner_join(nrc_fear) %>%
  count(word, sort = TRUE)

## # A tibble: 345 x 2
##    word         n
##    <chr>    <int>
##  1 afraid      61
##  2 horrible    48
##  3 dreadful    43
##  4 terrible    40
##  5 bad         37
##  6 mad         36
##  7 youth       36
##  8 death       32
##  9 hideous     32
## 10 pain        30
## #  with 335 more rows

tidy_Drac.2 %>% 
  inner_join(nrc_fear) %>%
  count(word, sort = TRUE)

## # A tibble: 529 x 2
##    word         n
##    <chr>    <int>
##  1 god        150
##  2 fear       137
##  3 terrible   100
##  4 death       94
##  5 watch       64
##  6 die         45
##  7 change      44
##  8 afraid      41
##  9 doubt       41
## 10 fire        41
## #  with 519 more rows

tidy_SCJH.2 %>% 
  inner_join(nrc_fear) %>%
  count(word, sort = TRUE)

## # A tibble: 269 x 2
##    word       n
##    <chr>  <int>
##  1 lawyer    67
##  2 god       22
##  3 fire      18
##  4 evil      17
##  5 death     15
##  6 change    14
##  7 fear      14
##  8 terror    13
##  9 horror    12
## 10 court     11
## #  with 259 more rows
…
